# ProBuilder 4.0.5
# https://unity3d.com/unity/features/worldbuilding/probuilder
# 02/10/2019 13:52:41

mtllib ./LghtPole.mtl
o LghtPole

g LghtPole
v 0 0 -6
v 0 1.166667 -6
v 0.0625 0 -5.891747
v 0.0625 1.166667 -5.891747
v 0.1875 0 -5.891747
v 0.1875 1.166667 -5.891747
v 0.25 0 -6
v 0.25 1.166667 -6
v 0.1875 0 -6.108253
v 0.1875 1.166667 -6.108253
v 0.06250001 0 -6.108253
v 0.06250001 1.166667 -6.108253
v 0 2.333333 -6
v 0.0625 2.333333 -5.891747
v 0.1875 2.333333 -5.891747
v 0.25 2.333333 -6
v 0.1875 2.333333 -6.108253
v 0.06250001 2.333333 -6.108253
v 0 3.5 -6
v 0.0625 3.5 -5.891747
v 0.1875 3.5 -5.891747
v 0.25 3.5 -6
v 0.1875 3.5 -6.108253
v 0.06250001 3.5 -6.108253
v 0.125 0 -6
v 0.1262273 3.5 -6

vt 0 0
vt 0 1.166667
vt 0.25 0
vt 0.25 1.166667
vt 0.125 0
vt 0.125 1.166667
vt 0.375 0
vt 0.375 1.166667
vt -0.25 0
vt -0.25 1.166667
vt -0.375 0
vt -0.375 1.166667
vt -0.125 0
vt -0.125 1.166667
vt 0 2.333333
vt 0.25 2.333333
vt 0.125 2.333333
vt 0.375 2.333333
vt -0.25 2.333333
vt -0.375 2.333333
vt -0.125 2.333333
vt 0 3.5
vt 0.25 3.5
vt 0.125 3.5
vt 0.375 3.5
vt -0.25 3.5
vt -0.375 3.5
vt -0.125 3.5
vt 0.125 0.2165064
vt -0.2524546 0
vt -0.125 0.2165064
vt 0.375 0.2165063
vt -0.375 0.2165063
vt 0.5 -2.185569E-08
vt -0.5 -2.185569E-08
vt 0.375 -0.2165064
vt -0.375 -0.2165064
vt 0.125 -0.2165064
vt -0.125 -0.2165064

vn -0.4330127 0 0.25
vn 2.980232E-08 0 0.5
vn 0.4330127 0 0.25
vn 0.4330127 0 -0.2500001
vn 0 0 -0.5
vn -0.4330127 0 -0.2500001
vn 0 -1 0
vn 0 1 0

g LghtPole
usemtl ProBuilderDefault
f 1/1/7 25/3/7 3/29/7
f 3/29/7 25/3/7 5/32/7
f 5/32/7 25/3/7 7/34/7
f 7/34/7 25/3/7 9/36/7
f 9/36/7 25/3/7 11/38/7
f 11/38/7 25/3/7 1/1/7
f 20/31/8 26/30/8 19/1/8
f 21/33/8 26/30/8 20/31/8
f 22/35/8 26/30/8 21/33/8
f 23/37/8 26/30/8 22/35/8
f 24/39/8 26/30/8 23/37/8
f 19/1/8 26/30/8 24/39/8
f 4/4/1 2/2/1 1/1/1
f 1/1/1 3/3/1 4/4/1
f 6/8/2 4/6/2 3/5/2
f 3/5/2 5/7/2 6/8/2
f 8/4/3 6/2/3 5/1/3
f 5/1/3 7/3/3 8/4/3
f 10/2/4 8/10/4 7/9/4
f 7/9/4 9/1/4 10/2/4
f 12/14/5 10/12/5 9/11/5
f 9/11/5 11/13/5 12/14/5
f 2/2/6 12/10/6 11/9/6
f 11/9/6 1/1/6 2/2/6
f 14/16/1 13/15/1 2/2/1
f 2/2/1 4/4/1 14/16/1
f 15/18/2 14/17/2 4/6/2
f 4/6/2 6/8/2 15/18/2
f 16/16/3 15/15/3 6/2/3
f 6/2/3 8/4/3 16/16/3
f 17/15/4 16/19/4 8/10/4
f 8/10/4 10/2/4 17/15/4
f 18/21/5 17/20/5 10/12/5
f 10/12/5 12/14/5 18/21/5
f 13/15/6 18/19/6 12/10/6
f 12/10/6 2/2/6 13/15/6
f 20/23/1 19/22/1 13/15/1
f 13/15/1 14/16/1 20/23/1
f 21/25/2 20/24/2 14/17/2
f 14/17/2 15/18/2 21/25/2
f 22/23/3 21/22/3 15/15/3
f 15/15/3 16/16/3 22/23/3
f 23/22/4 22/26/4 16/19/4
f 16/19/4 17/15/4 23/22/4
f 24/28/5 23/27/5 17/20/5
f 17/20/5 18/21/5 24/28/5
f 19/22/6 24/26/6 18/19/6
f 18/19/6 13/15/6 19/22/6

